module go-admin

go 1.15

require (
	github.com/360EntSecGroup-Skylar/excelize/v2 v2.3.2-0.20201222014852-576bfffbe6ad
	github.com/AlecAivazis/survey/v2 v2.2.7
	github.com/GoAdminGroup/go-admin v1.2.18
	github.com/GoAdminGroup/html v0.0.1
	github.com/GoAdminGroup/themes v0.0.41
	github.com/NebulousLabs/fastrand v0.0.0-20181203155948-6fb6489aac4e
	github.com/astaxie/beego v1.12.3
	github.com/buaazp/fasthttprouter v0.1.1
	github.com/denisenkom/go-mssqldb v0.9.0
	github.com/fasthttp-contrib/websocket v0.0.0-20160511215533-1f3b11f56072 // indirect
	github.com/gavv/httpexpect v2.0.0+incompatible
	github.com/gin-gonic/gin v1.6.3
	github.com/go-chi/chi v1.5.1
	github.com/go-sql-driver/mysql v1.5.0
	github.com/gobuffalo/buffalo v0.16.18
	github.com/gogf/gf v1.14.6
	github.com/gorilla/mux v1.8.0
	github.com/imkira/go-interpol v1.1.0 // indirect
	github.com/jawher/mow.cli v1.2.0
	github.com/jinzhu/gorm v1.9.16
	github.com/jteeuwen/go-bindata v3.0.7+incompatible
	github.com/k0kubun/colorstring v0.0.0-20150214042306-9440f1994b88 // indirect
	github.com/kataras/iris/v12 v12.1.8
	github.com/labstack/echo/v4 v4.1.17
	github.com/lib/pq v1.9.0
	github.com/magiconair/properties v1.8.1
	github.com/mattn/go-sqlite3 v2.0.3+incompatible
	github.com/mgutz/ansi v0.0.0-20170206155736-9520e82c474b
	github.com/moul/http2curl v1.0.0 // indirect
	github.com/natefinch/lumberjack v2.0.0+incompatible
	github.com/satori/go.uuid v1.2.0
	github.com/schollz/progressbar v1.0.0
	github.com/sclevine/agouti v3.0.0+incompatible
	github.com/stretchr/testify v1.6.1
	github.com/tdewolff/minify v2.3.6+incompatible
	github.com/tdewolff/parse v2.3.4+incompatible // indirect
	github.com/tdewolff/test v1.0.6 // indirect
	github.com/valyala/fasthttp v1.18.0
	github.com/xeipuuv/gojsonschema v1.2.0 // indirect
	github.com/yalp/jsonpath v0.0.0-20180802001716-5cc68e5049a0 // indirect
	github.com/yudai/gojsondiff v1.0.0 // indirect
	github.com/yudai/golcs v0.0.0-20170316035057-ecda9a501e82 // indirect
	github.com/yudai/pp v2.0.1+incompatible // indirect
	go.uber.org/zap v1.16.0
	golang.org/x/crypto v0.0.0-20201012173705-84dcc777aaee
	golang.org/x/text v0.3.3
	gopkg.in/ini.v1 v1.62.0
	gopkg.in/natefinch/lumberjack.v2 v2.0.0 // indirect
	gopkg.in/yaml.v2 v2.4.0
	xorm.io/xorm v1.0.5
)
